{
  "items": [
    {
      "id": "u_1",
      "created_at": "2026-05-10T10:00:00Z",
      "model": "gpt-5.4-mini",
      "request_type": "chat",
      "prompt_tokens": 10,
      "completion_tokens": 5,
      "total_tokens": 15,
      "cost_usd": 0.02,
      "status_code": 200
    }
  ],
  "total": 2,
  "offset": 0,
  "limit": 1,
  "has_more": true
}
